^C:\USERS\CARLOS\DOCUMENTS\PROYECTOS\OPENGLENGINE\PRACTICA2\DEBUG\3DS.OBJ|C:\USERS\CARLOS\DOCUMENTS\PROYECTOS\OPENGLENGINE\PRACTICA2\DEBUG\PRACTICA2.EXE.EMBED.MANIFEST.RES|C:\USERS\CARLOS\DOCUMENTS\PROYECTOS\OPENGLENGINE\PRACTICA2\DEBUG\RAY.OBJ|C:\USERS\CARLOS\DOCUMENTS\PROYECTOS\OPENGLENGINE\PRACTICA2\DEBUG\RAYTRACE.OBJ|C:\USERS\CARLOS\DOCUMENTS\PROYECTOS\OPENGLENGINE\PRACTICA2\DEBUG\SCENE.OBJ|C:\USERS\CARLOS\DOCUMENTS\PROYECTOS\OPENGLENGINE\PRACTICA2\DEBUG\STARTER.OBJ|C:\USERS\CARLOS\DOCUMENTS\PROYECTOS\OPENGLENGINE\PRACTICA2\DEBUG\XMLPARSER.OBJ
C:\PROGRAM FILES (X86)\MICROSOFT SDKS\WINDOWS\V7.0A\LIB\KERNEL32.LIB
C:\PROGRAM FILES (X86)\MICROSOFT SDKS\WINDOWS\V7.0A\LIB\USER32.LIB
C:\PROGRAM FILES (X86)\MICROSOFT SDKS\WINDOWS\V7.0A\LIB\GDI32.LIB
C:\PROGRAM FILES (X86)\MICROSOFT SDKS\WINDOWS\V7.0A\LIB\WINSPOOL.LIB
C:\PROGRAM FILES (X86)\MICROSOFT SDKS\WINDOWS\V7.0A\LIB\COMDLG32.LIB
C:\PROGRAM FILES (X86)\MICROSOFT SDKS\WINDOWS\V7.0A\LIB\ADVAPI32.LIB
C:\PROGRAM FILES (X86)\MICROSOFT SDKS\WINDOWS\V7.0A\LIB\SHELL32.LIB
C:\PROGRAM FILES (X86)\MICROSOFT SDKS\WINDOWS\V7.0A\LIB\OLE32.LIB
C:\PROGRAM FILES (X86)\MICROSOFT SDKS\WINDOWS\V7.0A\LIB\OLEAUT32.LIB
C:\PROGRAM FILES (X86)\MICROSOFT SDKS\WINDOWS\V7.0A\LIB\UUID.LIB
C:\PROGRAM FILES (X86)\MICROSOFT SDKS\WINDOWS\V7.0A\LIB\ODBC32.LIB
C:\PROGRAM FILES (X86)\MICROSOFT SDKS\WINDOWS\V7.0A\LIB\ODBCCP32.LIB
C:\USERS\CARLOS\DOCUMENTS\PROYECTOS\OPENGLENGINE\PRACTICA2\DEBUG\PRACTICA2.EXE.EMBED.MANIFEST.RES
C:\USERS\CARLOS\DOCUMENTS\PROYECTOS\OPENGLENGINE\PRACTICA2\DEBUG\3DS.OBJ
C:\USERS\CARLOS\DOCUMENTS\PROYECTOS\OPENGLENGINE\PRACTICA2\DEBUG\RAY.OBJ
C:\USERS\CARLOS\DOCUMENTS\PROYECTOS\OPENGLENGINE\PRACTICA2\DEBUG\RAYTRACE.OBJ
C:\USERS\CARLOS\DOCUMENTS\PROYECTOS\OPENGLENGINE\PRACTICA2\DEBUG\SCENE.OBJ
C:\USERS\CARLOS\DOCUMENTS\PROYECTOS\OPENGLENGINE\PRACTICA2\DEBUG\STARTER.OBJ
C:\USERS\CARLOS\DOCUMENTS\PROYECTOS\OPENGLENGINE\PRACTICA2\DEBUG\XMLPARSER.OBJ
C:\WINDOWS\SYSTEM32\TZRES.DLL
C:\USERS\CARLOS\DOCUMENTS\PROYECTOS\OPENGLENGINE\PRACTICA2\DEBUG\PRACTICA2.ILK
C:\USERS\CARLOS\DOCUMENTS\PROYECTOS\OPENGLENGINE\PRACTICA2\DEBUG\PRACTICA2.EXE
C:\WINDOWS\GLOBALIZATION\SORTING\SORTDEFAULT.NLS
C:\USERS\CARLOS\DOCUMENTS\PROYECTOS\OPENGLENGINE\PRACTICA2\DEBUG\PRACTICA2.PDB
C:\PROGRAM FILES (X86)\MICROSOFT VISUAL STUDIO 10.0\VC\LIB\LIBCPMTD.LIB
C:\PROGRAM FILES (X86)\MICROSOFT VISUAL STUDIO 10.0\VC\LIB\LIBCMTD.LIB
C:\PROGRAM FILES (X86)\MICROSOFT VISUAL STUDIO 10.0\VC\LIB\OLDNAMES.LIB
C:\PROGRAM FILES (X86)\MICROSOFT SDKS\WINDOWS\V7.0A\LIB\WINMM.LIB
C:\PROGRAM FILES (X86)\MICROSOFT SDKS\WINDOWS\V7.0A\LIB\OPENGL32.LIB
C:\PROGRAM FILES (X86)\MICROSOFT SDKS\WINDOWS\V7.0A\LIB\GLU32.LIB
C:\USERS\CARLOS\DOCUMENTS\PROYECTOS\OPENGLENGINE\PRACTICA2\GLUT32.LIB
C:\USERS\CARLOS\DOCUMENTS\PROYECTOS\OPENGLENGINE\PRACTICA2\WIN32\LIBTIFF_I.LIB
C:\USERS\CARLOS\DOCUMENTS\PROYECTOS\OPENGLENGINE\PRACTICA2\WIN32\JPEG.LIB
C:\USERS\CARLOS\DOCUMENTS\PROYECTOS\OPENGLENGINE\PRACTICA2\WIN32\LIBTIFF.LIB
C:\USERS\CARLOS\DOCUMENTS\PROYECTOS\OPENGLENGINE\PRACTICA2\WIN32\LIBPICIO.LIB
^C:\USERS\CARLOS\DOCUMENTS\PROYECTOS\SEGURIDAD\PRACTICA2\DEBUG\3DS.OBJ|C:\USERS\CARLOS\DOCUMENTS\PROYECTOS\SEGURIDAD\PRACTICA2\DEBUG\PRACTICA2.EXE.EMBED.MANIFEST.RES|C:\USERS\CARLOS\DOCUMENTS\PROYECTOS\SEGURIDAD\PRACTICA2\DEBUG\RAY.OBJ|C:\USERS\CARLOS\DOCUMENTS\PROYECTOS\SEGURIDAD\PRACTICA2\DEBUG\RAYTRACE.OBJ|C:\USERS\CARLOS\DOCUMENTS\PROYECTOS\SEGURIDAD\PRACTICA2\DEBUG\SCENE.OBJ|C:\USERS\CARLOS\DOCUMENTS\PROYECTOS\SEGURIDAD\PRACTICA2\DEBUG\STARTER.OBJ|C:\USERS\CARLOS\DOCUMENTS\PROYECTOS\SEGURIDAD\PRACTICA2\DEBUG\XMLPARSER.OBJ
C:\PROGRAM FILES (X86)\MICROSOFT SDKS\WINDOWS\V7.0A\LIB\KERNEL32.LIB
C:\PROGRAM FILES (X86)\MICROSOFT SDKS\WINDOWS\V7.0A\LIB\USER32.LIB
C:\PROGRAM FILES (X86)\MICROSOFT SDKS\WINDOWS\V7.0A\LIB\GDI32.LIB
C:\PROGRAM FILES (X86)\MICROSOFT SDKS\WINDOWS\V7.0A\LIB\WINSPOOL.LIB
C:\PROGRAM FILES (X86)\MICROSOFT SDKS\WINDOWS\V7.0A\LIB\COMDLG32.LIB
C:\PROGRAM FILES (X86)\MICROSOFT SDKS\WINDOWS\V7.0A\LIB\ADVAPI32.LIB
C:\PROGRAM FILES (X86)\MICROSOFT SDKS\WINDOWS\V7.0A\LIB\SHELL32.LIB
C:\PROGRAM FILES (X86)\MICROSOFT SDKS\WINDOWS\V7.0A\LIB\OLE32.LIB
C:\PROGRAM FILES (X86)\MICROSOFT SDKS\WINDOWS\V7.0A\LIB\OLEAUT32.LIB
C:\PROGRAM FILES (X86)\MICROSOFT SDKS\WINDOWS\V7.0A\LIB\UUID.LIB
C:\PROGRAM FILES (X86)\MICROSOFT SDKS\WINDOWS\V7.0A\LIB\ODBC32.LIB
C:\PROGRAM FILES (X86)\MICROSOFT SDKS\WINDOWS\V7.0A\LIB\ODBCCP32.LIB
C:\USERS\CARLOS\DOCUMENTS\PROYECTOS\SEGURIDAD\PRACTICA2\DEBUG\PRACTICA2.EXE.EMBED.MANIFEST.RES
C:\USERS\CARLOS\DOCUMENTS\PROYECTOS\SEGURIDAD\PRACTICA2\DEBUG\3DS.OBJ
C:\USERS\CARLOS\DOCUMENTS\PROYECTOS\SEGURIDAD\PRACTICA2\DEBUG\RAY.OBJ
C:\USERS\CARLOS\DOCUMENTS\PROYECTOS\SEGURIDAD\PRACTICA2\DEBUG\RAYTRACE.OBJ
C:\USERS\CARLOS\DOCUMENTS\PROYECTOS\SEGURIDAD\PRACTICA2\DEBUG\SCENE.OBJ
C:\USERS\CARLOS\DOCUMENTS\PROYECTOS\SEGURIDAD\PRACTICA2\DEBUG\STARTER.OBJ
C:\USERS\CARLOS\DOCUMENTS\PROYECTOS\SEGURIDAD\PRACTICA2\DEBUG\XMLPARSER.OBJ
C:\WINDOWS\SYSTEM32\TZRES.DLL
C:\USERS\CARLOS\DOCUMENTS\PROYECTOS\SEGURIDAD\PRACTICA2\DEBUG\PRACTICA2.ILK
C:\USERS\CARLOS\DOCUMENTS\PROYECTOS\SEGURIDAD\PRACTICA2\DEBUG\PRACTICA2.EXE
C:\WINDOWS\GLOBALIZATION\SORTING\SORTDEFAULT.NLS
C:\USERS\CARLOS\DOCUMENTS\PROYECTOS\SEGURIDAD\PRACTICA2\DEBUG\PRACTICA2.PDB
C:\PROGRAM FILES (X86)\MICROSOFT VISUAL STUDIO 10.0\VC\LIB\LIBCPMTD.LIB
C:\PROGRAM FILES (X86)\MICROSOFT VISUAL STUDIO 10.0\VC\LIB\LIBCMTD.LIB
C:\PROGRAM FILES (X86)\MICROSOFT VISUAL STUDIO 10.0\VC\LIB\OLDNAMES.LIB
C:\PROGRAM FILES (X86)\MICROSOFT SDKS\WINDOWS\V7.0A\LIB\WINMM.LIB
C:\PROGRAM FILES (X86)\MICROSOFT SDKS\WINDOWS\V7.0A\LIB\OPENGL32.LIB
C:\PROGRAM FILES (X86)\MICROSOFT SDKS\WINDOWS\V7.0A\LIB\GLU32.LIB
C:\USERS\CARLOS\DOCUMENTS\PROYECTOS\SEGURIDAD\PRACTICA2\GLUT32.LIB
C:\USERS\CARLOS\DOCUMENTS\PROYECTOS\SEGURIDAD\PRACTICA2\WIN32\LIBTIFF_I.LIB
C:\USERS\CARLOS\DOCUMENTS\PROYECTOS\SEGURIDAD\PRACTICA2\WIN32\JPEG.LIB
C:\USERS\CARLOS\DOCUMENTS\PROYECTOS\SEGURIDAD\PRACTICA2\WIN32\LIBTIFF.LIB
C:\USERS\CARLOS\DOCUMENTS\PROYECTOS\SEGURIDAD\PRACTICA2\WIN32\LIBPICIO.LIB
