^C:\USERS\CARLOS\DOCUMENTS\PROYECTOS\PRACTICA2\RELEASE\3DS.OBJ|C:\USERS\CARLOS\DOCUMENTS\PROYECTOS\PRACTICA2\RELEASE\RAYTRACE.OBJ|C:\USERS\CARLOS\DOCUMENTS\PROYECTOS\PRACTICA2\RELEASE\SCENE.OBJ|C:\USERS\CARLOS\DOCUMENTS\PROYECTOS\PRACTICA2\RELEASE\STARTER.OBJ|C:\USERS\CARLOS\DOCUMENTS\PROYECTOS\PRACTICA2\RELEASE\XMLPARSER.OBJ
/ERRORREPORT:PROMPT /OUT:"C:\Users\carlos\Documents\Proyectos\Practica2\Release\Practica2.exe" /INCREMENTAL:NO /NOLOGO kernel32.lib user32.lib gdi32.lib winspool.lib comdlg32.lib advapi32.lib shell32.lib ole32.lib oleaut32.lib uuid.lib odbc32.lib odbccp32.lib /NODEFAULTLIB:libc.lib /MANIFEST /ManifestFile:"Release\Practica2.exe.intermediate.manifest" /MANIFESTUAC:"level='asInvoker' uiAccess='false'" /DEBUG /PDB:"C:\Users\carlos\Documents\Proyectos\Practica2\Release\Practica2.pdb" /SUBSYSTEM:CONSOLE /OPT:REF /OPT:ICF /LTCG /TLBID:1 /DYNAMICBASE /NXCOMPAT /IMPLIB:"C:\Users\carlos\Documents\Proyectos\Practica2\Release\Practica2.lib" /MACHINE:X86 Release\3ds.obj
Release\RayTrace.obj
Release\Scene.obj
Release\starter.obj
Release\xmlParser.obj
