# 3ds Max Wavefront OBJ Exporter v0.97b - (c)2007 guruware
# File Created: 09.03.2015 08:06:21

newmtl _red_cellwire_006135113
	Ns 32.0000
	Ni 1.5000
	d 1.0000
	Tr 0.0000
	Tf 1.0000 1.0000 1.0000 
	illum 2
	Ka 0.0235 0.5294 0.4431
	Kd 0.0235 0.5294 0.4431
	Ks 0.3500 0.3500 0.3500
	Ke 0.0000 0.0000 0.0000
