Tipo									Location

Posicion de vertices					0
Vector normales							1
Color de fragmentos						2
UV coordenadas							3

Render buffers:

Textura diffusa							4
Textura specular						5
Textura normal							6
Textura brillo							7


